index
…
model_eba_all_prec[model_eba_all_prec$type== 1,
                     c("vegetation")]<-"Primary Vegetation"
model_eba_all_prec[model_eba_all_prec$type== 2,
                     c("vegetation")]<-"Secondary Vegetation"

model_eba_all_prec

# A tibble: 360 × 9
     Ano Tipo  region ff_area  Prec type  predicted  area vegetation        
   <dbl> <chr> <chr>  <chr>   <dbl> <fct>     <dbl> <dbl> <chr>             
 1  2001 PF    EBA    1-10    2220. 1         2157.     1 Primary Vegetation
 2  2001 PF    EBA    10-20   2237. 1         2197.     2 Primary Vegetation
 3  2001 PF    EBA    20-30   2252. 1         2225.     3 Primary Vegetation
 4  2001 PF    EBA    30-40   2266. 1         2244.     4 Primary Vegetation
 5  2001 PF    EBA    40-50   2271. 1         2261.     5 Primary Vegetation
 6  2001 PF    EBA    50-60   2279. 1         2274.     6 Primary Vegetation
 7  2001 PF    EBA    60-70   2278. 1         2282.     7 Primary Vegetation
 8  2001 PF    EBA    70-80   2264. 1         2287.     8 Primary Vegetation
 9  2001 PF    EBA    80-90   2255. 1         2292.     9 Primary Vegetation
10  2001 PF    EBA    90-100  2135. 1         2240.    10 Primary Vegetation
# ℹ 350 more rows
…
model_sba_all_prec[model_sba_all_prec$type== 1,
                     c("vegetation")]<-"Primary Vegetation"
model_sba_all_prec[model_sba_all_prec$type== 2,
                     c("vegetation")]<-"Secondary Vegetation"

model_sba_all_prec

# A tibble: 360 × 9
     Ano Tipo  region ff_area  Prec type  predicted  area vegetation        
   <dbl> <chr> <chr>  <chr>   <dbl> <fct>     <dbl> <dbl> <chr>             
 1  2001 PF    SBA    1-10    1899. 1         1921.     1 Primary Vegetation
 2  2001 PF    SBA    10-20   1936. 1         1955.     2 Primary Vegetation
 3  2001 PF    SBA    20-30   1963. 1         1975.     3 Primary Vegetation
 4  2001 PF    SBA    30-40   1984. 1         1994.     4 Primary Vegetation
 5  2001 PF    SBA    40-50   2004. 1         2009.     5 Primary Vegetation
 6  2001 PF    SBA    50-60   2025. 1         2027.     6 Primary Vegetation
 7  2001 PF    SBA    60-70   2051. 1         2045.     7 Primary Vegetation
 8  2001 PF    SBA    70-80   2068. 1         2061.     8 Primary Vegetation
 9  2001 PF    SBA    80-90   2093. 1         2078.     9 Primary Vegetation
10  2001 PF    SBA    90-100  2202. 1         2161.    10 Primary Vegetation
# ℹ 350 more rows
…
model_cba_all_evapo[model_cba_all_evapo$type== 1,
                     c("vegetation")]<-"Primary Vegetation"
model_cba_all_evapo[model_cba_all_evapo$type== 2,
                     c("vegetation")]<-"Secondary Vegetation"

model_cba_all_evapo

# A tibble: 360 × 9
     Ano Tipo  region ff_area Evapo type  predicted  area vegetation        
   <dbl> <chr> <chr>  <chr>   <dbl> <fct>     <dbl> <dbl> <chr>             
 1  2001 PF    CBA    1-10    1333. 1         1373.     1 Primary Vegetation
 2  2001 PF    CBA    10-20   1397. 1         1427.     2 Primary Vegetation
 3  2001 PF    CBA    20-30   1444. 1         1462.     3 Primary Vegetation
 4  2001 PF    CBA    30-40   1477. 1         1485.     4 Primary Vegetation
 5  2001 PF    CBA    40-50   1500. 1         1498.     5 Primary Vegetation
 6  2001 PF    CBA    50-60   1518. 1         1509.     6 Primary Vegetation
 7  2001 PF    CBA    60-70   1535. 1         1517.     7 Primary Vegetation
 8  2001 PF    CBA    70-80   1547. 1         1523.     8 Primary Vegetation
 9  2001 PF    CBA    80-90   1558. 1         1529.     9 Primary Vegetation
10  2001 PF    CBA    90-100  1573. 1         1554.    10 Primary Vegetation
# ℹ 350 more rows
…
model_eba_all_evapo[model_eba_all_evapo$type== 1,
                     c("vegetation")]<-"Primary Vegetation"
model_eba_all_evapo[model_eba_all_evapo$type== 2,
                     c("vegetation")]<-"Secondary Vegetation"

model_eba_all_evapo

# A tibble: 360 × 9
     Ano Tipo  region ff_area Evapo type  predicted  area vegetation        
   <dbl> <chr> <chr>  <chr>   <dbl> <fct>     <dbl> <dbl> <chr>             
 1  2001 PF    EBA    1-10    1366. 1         1392.     1 Primary Vegetation
 2  2001 PF    EBA    10-20   1414. 1         1436.     2 Primary Vegetation
 3  2001 PF    EBA    20-30   1446. 1         1463.     3 Primary Vegetation
 4  2001 PF    EBA    30-40   1473. 1         1483.     4 Primary Vegetation
 5  2001 PF    EBA    40-50   1494. 1         1498.     5 Primary Vegetation
 6  2001 PF    EBA    50-60   1507. 1         1505.     6 Primary Vegetation
 7  2001 PF    EBA    60-70   1521. 1         1511.     7 Primary Vegetation
 8  2001 PF    EBA    70-80   1528. 1         1512.     8 Primary Vegetation
 9  2001 PF    EBA    80-90   1535. 1         1513.     9 Primary Vegetation
10  2001 PF    EBA    90-100  1541. 1         1518.    10 Primary Vegetation
# ℹ 350 more rows
…
model_sba_all_evapo[model_sba_all_evapo$type== 1,
                     c("vegetation")]<-"Primary Vegetation"
model_sba_all_evapo[model_sba_all_evapo$type== 2,
                     c("vegetation")]<-"Secondary Vegetation"

model_sba_all_evapo

# A tibble: 360 × 9
     Ano Tipo  region ff_area Evapo type  predicted  area vegetation        
   <dbl> <chr> <chr>  <chr>   <dbl> <fct>     <dbl> <dbl> <chr>             
 1  2001 PF    SBA    1-10     973. 1         1091.     1 Primary Vegetation
 2  2001 PF    SBA    10-20   1046. 1         1143.     2 Primary Vegetation
 3  2001 PF    SBA    20-30   1107. 1         1181.     3 Primary Vegetation
 4  2001 PF    SBA    30-40   1164. 1         1214.     4 Primary Vegetation
 5  2001 PF    SBA    40-50   1212. 1         1238.     5 Primary Vegetation
 6  2001 PF    SBA    50-60   1264. 1         1261.     6 Primary Vegetation
 7  2001 PF    SBA    60-70   1309. 1         1281.     7 Primary Vegetation
 8  2001 PF    SBA    70-80   1355. 1         1297.     8 Primary Vegetation
 9  2001 PF    SBA    80-90   1399. 1         1313.     9 Primary Vegetation
10  2001 PF    SBA    90-100  1480. 1         1341.    10 Primary Vegetation
# ℹ 350 more rows
…
model_cba_all_temp[model_cba_all_temp$type== 1,
                     c("vegetation")]<-"Primary Vegetation"
model_cba_all_temp[model_cba_all_temp$type== 2,
                     c("vegetation")]<-"Secondary Vegetation"

model_cba_all_temp

# A tibble: 360 × 9
     Ano Tipo  region ff_area  Temp type  predicted  area vegetation        
   <dbl> <chr> <chr>  <chr>   <dbl> <fct>     <dbl> <dbl> <chr>             
 1  2001 PF    CBA    1-10     26.2 1          26.2     1 Primary Vegetation
 2  2001 PF    CBA    10-20    25.9 1          25.9     2 Primary Vegetation
 3  2001 PF    CBA    20-30    25.8 1          25.8     3 Primary Vegetation
 4  2001 PF    CBA    30-40    25.7 1          25.7     4 Primary Vegetation
 5  2001 PF    CBA    40-50    25.6 1          25.6     5 Primary Vegetation
 6  2001 PF    CBA    50-60    25.5 1          25.5     6 Primary Vegetation
 7  2001 PF    CBA    60-70    25.4 1          25.4     7 Primary Vegetation
 8  2001 PF    CBA    70-80    25.3 1          25.3     8 Primary Vegetation
 9  2001 PF    CBA    80-90    25.2 1          25.2     9 Primary Vegetation
10  2001 PF    CBA    90-100   24.7 1          24.8    10 Primary Vegetation
# ℹ 350 more rows
…
model_eba_all_temp[model_eba_all_temp$type== 1,
                     c("vegetation")]<-"Primary Vegetation"
model_eba_all_temp[model_eba_all_temp$type== 2,
                     c("vegetation")]<-"Secondary Vegetation"

model_eba_all_temp

# A tibble: 360 × 9
     Ano Tipo  region ff_area  Temp type  predicted  area vegetation        
   <dbl> <chr> <chr>  <chr>   <dbl> <fct>     <dbl> <dbl> <chr>             
 1  2001 PF    EBA    1-10     25.7 1          25.7     1 Primary Vegetation
 2  2001 PF    EBA    10-20    25.5 1          25.5     2 Primary Vegetation
 3  2001 PF    EBA    20-30    25.3 1          25.3     3 Primary Vegetation
 4  2001 PF    EBA    30-40    25.2 1          25.2     4 Primary Vegetation
 5  2001 PF    EBA    40-50    25.1 1          25.1     5 Primary Vegetation
 6  2001 PF    EBA    50-60    25.0 1          25.0     6 Primary Vegetation
 7  2001 PF    EBA    60-70    24.9 1          24.9     7 Primary Vegetation
 8  2001 PF    EBA    70-80    24.8 1          24.8     8 Primary Vegetation
 9  2001 PF    EBA    80-90    24.7 1          24.7     9 Primary Vegetation
10  2001 PF    EBA    90-100   24.2 1          24.1    10 Primary Vegetation
# ℹ 350 more rows
…
model_sba_all_temp[model_sba_all_temp$type== 1,
                     c("vegetation")]<-"Primary Vegetation"
model_sba_all_temp[model_sba_all_temp$type== 2,
                     c("vegetation")]<-"Secondary Vegetation"

model_sba_all_temp

# A tibble: 360 × 9
     Ano Tipo  region ff_area  Temp type  predicted  area vegetation        
   <dbl> <chr> <chr>  <chr>   <dbl> <fct>     <dbl> <dbl> <chr>             
 1  2001 PF    SBA    1-10     25.8 1          25.9     1 Primary Vegetation
 2  2001 PF    SBA    10-20    25.6 1          25.6     2 Primary Vegetation
 3  2001 PF    SBA    20-30    25.4 1          25.5     3 Primary Vegetation
 4  2001 PF    SBA    30-40    25.2 1          25.3     4 Primary Vegetation
 5  2001 PF    SBA    40-50    25.1 1          25.1     5 Primary Vegetation
 6  2001 PF    SBA    50-60    25.0 1          25.0     6 Primary Vegetation
 7  2001 PF    SBA    60-70    24.9 1          24.9     7 Primary Vegetation
 8  2001 PF    SBA    70-80    24.8 1          24.7     8 Primary Vegetation
 9  2001 PF    SBA    80-90    24.6 1          24.6     9 Primary Vegetation
10  2001 PF    SBA    90-100   24.3 1          24.1    10 Primary Vegetation
# ℹ 350 more rows
…
